%XS Pol lmax=11 mmax=6
% multiply by 0.058893 so that the dipole component has Btheta=0.5 at r=1
0.0000000000 0.0000000000
334.4052425111 0.0000000000
-13.7474404474 0.0000000000
4.6280780070 0.0000000000
-3.2263533512 0.0000000000
4.5990497058 0.0000000000
0.0000977591 0.0000000000
-0.0000350970 0.0000000000
1.7826230227 0.0000000000
-1.5360809911 0.0000000000
-0.9537902333 0.0000000000
-5.6148659559 0.0000000000
0.0569237580 -0.1882174188
0.1139638242 -0.3802565032
0.3808659029 -0.0194459685
0.0000178735 0.0324424247
-0.2072324557 0.0000409539
-0.0000679076 -0.0000030021
0.0000380834 0.0000549918
0.0124730469 -0.0000095929
-0.0001138358 -0.0272344429
-0.0045436570 -0.0169706504
0.0019007282 0.0396575990
-0.9487397640 0.6783952213
0.2826574174 -0.4002834551
0.1200203073 -0.0749449637
-0.0048297949 0.1673045289
-0.0081008694 0.1297028128
-0.0321957090 0.0004280012
0.0523622976 -0.0475671741
-0.0047252303 0.0457850614
0.0069619612 0.0942587559
-0.0546169497 0.0572350614
-0.3474712965 -0.4409261261
-0.1177179280 -0.0328290283
0.0412135389 0.0273424670
-0.0699589325 -0.0138924845
0.1387505386 0.0150124068
-0.0624405112 0.0022131363
0.0310018852 0.0122094835
-0.0463474932 0.0495881857
0.0800360387 0.0225680743
0.0770751325 -0.2927963142
-0.0426513037 -0.0029243363
0.1531259303 0.0696350842
-0.0466495677 -0.0101777289
-0.0618736321 -0.0322907393
0.0057182464 -0.0027689519
0.0142650166 0.0207712928
0.0092467056 0.0345770747
0.1255547531 0.0174990086
0.0144147978 -0.0170693148
0.0227553755 0.0145782338
0.0239889630 0.0015343371
0.0030324482 0.0063522172
0.0094893651 0.0138146391
-0.0031085350 -0.0047145981
-0.0553751980 -0.0606681220
0.0487504609 0.0159557819
-0.0234640155 0.0012449593
0.0143778091 0.0160971338
-0.0040115025 0.0053303399
0.0032249748 -0.0118189608
